acls:
  enable: false
  modify_groups: []
  modify_users: []
  ui_users: []
  view_groups: []
  view_users: []
file_systems: []
master:
  env:
    SPARK_CONF_DIR: /etc/spark3/conf
  files:
    airflow.keytab:
      size: 0
      source: file:///pytest/path/to/airflow.keytab
      timestamp: 0
      type: FILE
      visibility: APPLICATION
  log_level: INFO
  resources:
    fpgas: 0
    gpus: 0
    memory: 3815
    vcores: 2
  script: spark3-submit --driver-cores 2 --conf spark.executorEnv.SPARK_CONF_DIR=/etc/spark3/conf
    --master yarn --conf spark.dynamicAllocation.enabled=true --conf spark.dynamicAllocation.maxExecutors=16
    --conf spark.shuffle.service.enabled=true --conf spark.yarn.maxAppAttempts=1 --conf
    spark.yarn.appMasterEnv.SPARK_CONF_DIR=/etc/spark3/conf --executor-cores 2 --executor-memory
    4G --driver-memory 4G --keytab airflow.keytab --principal airflow --name mediawiki_wikitext_history__repair_mediawiki_wikitext_history_table__20230501
    --class org.apache.spark.sql.hive.thriftserver.SparkSQLCLIDriver --queue production
    --deploy-mode client '' -f hdfs://analytics-hadoop/wmf/refinery/current/hql/utils/repair_partitions.hql
    -d table=wmf.mediawiki_wikitext_history
max_attempts: 1
name: Airflow SparkSkeinSubmitHook skein launcher mediawiki_wikitext_history__repair_mediawiki_wikitext_history_table__20230501
node_label: ''
queue: production
services: {}
tags: []
user: ''
