acls:
  enable: false
  modify_groups: []
  modify_users: []
  ui_users: []
  view_groups: []
  view_users: []
file_systems: []
master:
  env:
    SPARK_CONF_DIR: /etc/spark3/conf
  files:
    airflow.keytab:
      size: 0
      source: file:///pytest/path/to/airflow.keytab
      timestamp: 0
      type: FILE
      visibility: APPLICATION
  log_level: INFO
  resources:
    fpgas: 0
    gpus: 0
    memory: 3815
    vcores: 1
  script: spark3-submit --driver-cores 1 --conf spark.executorEnv.SPARK_CONF_DIR=/etc/spark3/conf
    --master yarn --conf spark.dynamicAllocation.maxExecutors=64 --conf spark.yarn.executor.memoryOverhead=2048
    --conf spark.sql.shuffle.partitions=512 --conf spark.yarn.appMasterEnv.SPARK_CONF_DIR=/etc/spark3/conf
    --executor-cores 4 --executor-memory 16G --driver-memory 4G --keytab airflow.keytab
    --principal airflow --name unique_devices_monthly__compute_per_project_family_metrics__20221101
    --class org.apache.spark.sql.hive.thriftserver.SparkSQLCLIDriver --queue production
    --deploy-mode client '' -f hdfs://analytics-hadoop/wmf/refinery/current/hql/unique_devices/per_project_family/unique_devices_per_project_family_monthly.hql
    -d source_table=wmf.pageview_actor -d destination_table=wmf.unique_devices_per_project_family_monthly
    -d year=2022 -d month=10 -d coalesce_partitions=1
max_attempts: 1
name: Airflow SparkSkeinSubmitHook skein launcher unique_devices_monthly__compute_per_project_family_metrics__20221101
node_label: ''
queue: production
services: {}
tags: []
user: ''
