acls:
  enable: false
  modify_groups: []
  modify_users: []
  ui_users: []
  view_groups: []
  view_users: []
file_systems: []
master:
  env:
    SPARK_CONF_DIR: /etc/spark3/conf
  files:
    airflow.keytab:
      size: 0
      source: file:///pytest/path/to/airflow.keytab
      timestamp: 0
      type: FILE
      visibility: APPLICATION
  log_level: INFO
  resources:
    fpgas: 0
    gpus: 0
    memory: 3815
    vcores: 1
  script: spark3-submit --driver-cores 1 --conf spark.executorEnv.SPARK_CONF_DIR=/etc/spark3/conf
    --master yarn --conf spark.sql.catalog.aqs=com.datastax.spark.connector.datasource.CassandraCatalog
    --conf spark.sql.catalog.aqs.spark.cassandra.connection.host=aqs1010-a.eqiad.wmnet:9042,aqs1011-a.eqiad.wmnet:9042,aqs1012-a.eqiad.wmnet:9042
    --conf spark.sql.catalog.aqs.spark.cassandra.auth.username=aqsloader --conf spark.sql.catalog.aqs.spark.cassandra.auth.password=cassandra
    --conf spark.sql.catalog.aqs.spark.cassandra.output.batch.size.rows=1024 --conf
    spark.dynamicAllocation.maxExecutors=64 --conf spark.yarn.maxAppAttempts=1 --conf
    spark.executor.memoryOverhead=2048 --conf spark.yarn.appMasterEnv.SPARK_CONF_DIR=/etc/spark3/conf
    --jars hdfs:///wmf/cache/artifacts/airflow/analytics/spark-cassandra-connector-assembly-3.2.0-WMF-1.jar,hdfs:///wmf/cache/artifacts/airflow/analytics/refinery-job-0.2.7-shaded.jar
    --executor-cores 2 --executor-memory 8G --driver-memory 4G --keytab airflow.keytab
    --principal airflow --name cassandra_daily_load__load_pageview_top_per_country_to_cassandra__20220922
    --class org.apache.spark.sql.hive.thriftserver.SparkSQLCLIDriver --queue production
    --deploy-mode client '' -f hdfs://analytics-hadoop/wmf/refinery/current/hql/cassandra/daily/load_cassandra_pageview_top_percountry_daily.hql
    -d source_table=wmf.pageview_actor -d country_deny_list_table=wmf.geoeditors_blacklist_country
    -d destination_table=aqs.local_group_default_T_top_percountry.data -d year=2022
    -d month=9 -d day=21 -d coalesce_partitions=6
max_attempts: 1
name: Airflow SparkSkeinSubmitHook skein launcher cassandra_daily_load__load_pageview_top_per_country_to_cassandra__20220922
node_label: ''
queue: production
services: {}
tags: []
user: ''
