acls:
  enable: false
  modify_groups: []
  modify_users: []
  ui_users: []
  view_groups: []
  view_users: []
file_systems: []
master:
  env:
    SPARK_CONF_DIR: /etc/spark3/conf
  files:
    airflow.keytab:
      size: 0
      source: file:///pytest/path/to/airflow.keytab
      timestamp: 0
      type: FILE
      visibility: APPLICATION
  log_level: INFO
  resources:
    fpgas: 0
    gpus: 0
    memory: 3815
    vcores: 2
  script: spark3-submit --driver-cores 2 --conf spark.executorEnv.SPARK_CONF_DIR=/etc/spark3/conf
    --master yarn --conf spark.dynamicAllocation.enabled=true --conf spark.dynamicAllocation.maxExecutors=16
    --conf spark.shuffle.service.enabled=true --conf spark.yarn.maxAppAttempts=1 --conf
    spark.yarn.appMasterEnv.SPARK_CONF_DIR=/etc/spark3/conf --executor-cores 2 --executor-memory
    4G --driver-memory 4G --keytab airflow.keytab --principal airflow --name unique_devices_monthly__dump_per_domain_metrics__20221101
    --class org.apache.spark.sql.hive.thriftserver.SparkSQLCLIDriver --queue production
    --deploy-mode client '' -f hdfs://analytics-hadoop/wmf/refinery/current/hql/unique_devices/per_domain/unique_devices_per_domain_monthly_to_archive.hql
    -d source_table=wmf.unique_devices_per_domain_monthly -d destination_directory=/wmf/tmp/analytics/unique_devices_monthly/per_domain/2022-10
    -d year=2022 -d month=10
max_attempts: 1
name: Airflow SparkSkeinSubmitHook skein launcher unique_devices_monthly__dump_per_domain_metrics__20221101
node_label: ''
queue: production
services: {}
tags: []
user: ''
