acls:
  enable: false
  modify_groups: []
  modify_users: []
  ui_users: []
  view_groups: []
  view_users: []
file_systems: []
master:
  env:
    HTTPS_PROXY: http://webproxy.eqiad.wmnet:8080
  files:
    discolytics-0.12.0.conda.tgz:
      size: 0
      source: hdfs:///wmf/cache/artifacts/airflow/search/discolytics-0.12.0.conda.tgz
      timestamp: 0
      type: ARCHIVE
      visibility: APPLICATION
  log_level: INFO
  resources:
    fpgas: 0
    gpus: 0
    memory: 1024
    vcores: 1
  script: 'set -o errexit;

    discolytics-0.12.0.conda.tgz/bin/python discolytics-0.12.0.conda.tgz/bin/fetch_ores_thresholds.py
    --model articletopic --output-path thresholds.json;

    hdfs dfs -put -f thresholds.json ''hdfs:///wmf/data/discovery/ores/thresholds/articletopic_20210125.json'';'
max_attempts: 1
name: fetch_articletopic_prediction_thresholds_output_files
node_label: ''
queue: default
services: {}
tags: []
user: ''
